{
  "Simple Melee Weapons": [
    {
      "WEAPON": "Club",
      "COST": "1 sp",
      "DAMAGE": "1d4 bludgeoning",
      "WEIGHT": "2 lb.",
      "WEAPON OPTION": "Bash",
      "PROPERTIES": "Light"
    },
    {
      "WEAPON": "Dagger",
      "COST": "2 gp",
      "DAMAGE": "1d4 piercing",
      "WEIGHT": "1 lb.",
      "WEAPON OPTION": "Pinning Shot",
      "PROPERTIES": "Finesse, Light, Thrown (range 20/60 ft.)"
    },
    {
      "WEAPON": "Greatclub",
      "COST": "2 sp",
      "DAMAGE": "1d8 bludgeoning",
      "WEIGHT": "10 lb.",
      "WEAPON OPTION": "Bash",
      "PROPERTIES": "Two-handed"
    },
    {
      "WEAPON": "Handaxe",
      "COST": "5 gp",
      "DAMAGE": "1d6 slashing",
      "WEIGHT": "2 lb.",
      "WEAPON OPTION": "Hamstring",
      "PROPERTIES": "Light, Thrown (range 20/60 ft.)"
    },
    {
      "WEAPON": "Javelin",
      "COST": "5 sp",
      "DAMAGE": "1d6 piercing",
      "WEIGHT": "2 lb.",
      "WEAPON OPTION": "Pinning Shot",
      "PROPERTIES": "Thrown (range 30/120 ft.)"
    },
    {
      "WEAPON": "Light hammer",
      "COST": "2 sp",
      "DAMAGE": "1d4 bludgeoning",
      "WEIGHT": "2 lb.",
      "WEAPON OPTION": "Bash",
      "PROPERTIES": "Light, Thrown (range 20/60 ft.)"
    },
    {
      "WEAPON": "Mace",
      "COST": "5 gp",
      "DAMAGE": "1d6 bludgeoning",
      "WEIGHT": "4 lb.",
      "WEAPON OPTION": "Bash",
      "PROPERTIES": "—"
    },
    {
      "WEAPON": "Quarterstaff",
      "COST": "2 sp",
      "DAMAGE": "1d6/1d8 bludgeoning",
      "WEIGHT": "4 lb.",
      "WEAPON OPTION": "Bash",
      "PROPERTIES": "Versatile"
    },
    {
      "WEAPON": "Sickle",
      "COST": "1 gp",
      "DAMAGE": "1d4 slashing",
      "WEIGHT": "2 lb.",
      "WEAPON OPTION": "Hamstring",
      "PROPERTIES": "Light"
    },
    {
      "WEAPON": "Spear",
      "COST": "1 gp",
      "DAMAGE": "1d6/1d8 piercing",
      "WEIGHT": "3 lb.",
      "WEAPON OPTION": "Pull, Trip",
      "PROPERTIES": "Reach, Versatile"
    }
  ],
  "Simple Ranged Weapons": [
    {
      "WEAPON": "Crossbow, light",
      "COST": "25 gp",
      "DAMAGE": "1d8 piercing",
      "WEIGHT": "5 lb.",
      "WEAPON OPTION": "—",
      "PROPERTIES": "Ammunition (range 80/320 ft.), Loading, Two-handed"
    },
    {
      "WEAPON": "Dart",
      "COST": "5 cp",
      "DAMAGE": "1d4 piercing",
      "WEIGHT": "1/4 lb.",
      "WEAPON OPTION": "—",
      "PROPERTIES": "Finesse, Thrown (range 20/60 ft.)"
    },
    {
      "WEAPON": "Shortbow",
      "COST": "25 gp",
      "DAMAGE": "1d6 piercing",
      "WEIGHT": "2 lb.",
      "WEAPON OPTION": "—",
      "PROPERTIES": "Ammunition (range 80/320 ft.), Two-handed"
    },
    {
      "WEAPON": "Sling",
      "COST": "1 sp",
      "DAMAGE": "1d4 bludgeoning",
      "WEIGHT": "—",
      "WEAPON OPTION": "Ricochet Shot",
      "PROPERTIES": "Ammunition (range 30/120 ft.)"
    }
  ],
  "Martial Melee Weapons": [
    {
      "WEAPON": "Battleaxe",
      "COST": "10 gp",
      "DAMAGE": "1d8/1d10 slashing",
      "WEIGHT": "4 lb.",
      "WEAPON OPTION": "Disarm, Hamstring",
      "PROPERTIES": "Versatile"
    },
    {
      "WEAPON": "Flail",
      "COST": "10 gp",
      "DAMAGE": "1d8 bludgeoning",
      "WEIGHT": "2 lb.",
      "WEAPON OPTION": "Bash, Disarm",
      "PROPERTIES": "—"
    },
    {
      "WEAPON": "Glaive",
      "COST": "20 gp",
      "DAMAGE": "1d10 slashing",
      "WEIGHT": "6 lb.",
      "WEAPON OPTION": "Trip",
      "PROPERTIES": "Heavy, Reach, Two-handed"
    },
    {
      "WEAPON": "Greataxe",
      "COST": "30 gp",
      "DAMAGE": "1d12 slashing",
      "WEIGHT": "7 lb.",
      "WEAPON OPTION": "Disarm, Hamstring",
      "PROPERTIES": "Heavy, Two-handed"
    },
    {
      "WEAPON": "Greatsword",
      "COST": "50 gp",
      "DAMAGE": "2d6 slashing",
      "WEIGHT": "6 lb.",
      "WEAPON OPTION": "Disarm, Hamstring",
      "PROPERTIES": "Heavy, Two-handed"
    },
    {
      "WEAPON": "Halberd",
      "COST": "20 gp",
      "DAMAGE": "1d10 slashing",
      "WEIGHT": "6 lb.",
      "WEAPON OPTION": "Trip",
      "PROPERTIES": "Heavy, Reach, Two-handed"
    },
    {
      "WEAPON": "Lance",
      "COST": "10 gp",
      "DAMAGE": "1d12 piercing",
      "WEIGHT": "6 lb.",
      "WEAPON OPTION": "—",
      "PROPERTIES": "Reach, Special"
    },
    {
      "WEAPON": "Longsword",
      "COST": "15 gp",
      "DAMAGE": "1d8/1d10 slashing",
      "WEIGHT": "3 lb.",
      "WEAPON OPTION": "Disarm, Hamstring",
      "PROPERTIES": "Versatile"
    },
    {
      "WEAPON": "Maul",
      "COST": "10 gp",
      "DAMAGE": "2d6 bludgeoning",
      "WEIGHT": "10 lb.",
      "WEAPON OPTION": "Bash, Disarm",
      "PROPERTIES": "Heavy, Two-handed"
    },
    {
      "WEAPON": "Morningstar",
      "COST": "15 gp",
      "DAMAGE": "1d8 piercing",
      "WEIGHT": "4 lb.",
      "WEAPON OPTION": "Disarm",
      "PROPERTIES": "—"
    },
    {
      "WEAPON": "Pike",
      "COST": "5 gp",
      "DAMAGE": "1d10 piercing",
      "WEIGHT": "18 lb.",
      "WEAPON OPTION": "Trip",
      "PROPERTIES": "Heavy, Reach, Two-handed"
    },
    {
      "WEAPON": "Rapier",
      "COST": "25 gp",
      "DAMAGE": "1d8 piercing",
      "WEIGHT": "2 lb.",
      "WEAPON OPTION": "Disarm",
      "PROPERTIES": "Finesse"
    },
    {
      "WEAPON": "Scimitar",
      "COST": "25 gp",
      "DAMAGE": "1d6 slashing",
      "WEIGHT": "3 lb.",
      "WEAPON OPTION": "Hamstring",
      "PROPERTIES": "Finesse, Light"
    },
    {
      "WEAPON": "Scythe",
      "COST": "20 gp",
      "DAMAGE": "2d4 slashing",
      "WEIGHT": "4 lb.",
      "WEAPON OPTION": "Pull, Trip",
      "PROPERTIES": "Reach, Two-handed"
    },
    {
      "WEAPON": "Shortsword",
      "COST": "10 gp",
      "DAMAGE": "1d6 piercing",
      "WEIGHT": "2 lb.",
      "WEAPON OPTION": "Disarm",
      "PROPERTIES": "Finesse, Light"
    },
    {
      "WEAPON": "Trident",
      "COST": "5 gp",
      "DAMAGE": "1d6/1d8 piercing",
      "WEIGHT": "4 lb.",
      "WEAPON OPTION": "Disarm",
      "PROPERTIES": "Thrown (range 20/60 ft.), Versatile"
    },
    {
      "WEAPON": "War pick",
      "COST": "5 gp",
      "DAMAGE": "1d8 piercing",
      "WEIGHT": "2 lb.",
      "WEAPON OPTION": "Disarm",
      "PROPERTIES": "—"
    },
    {
      "WEAPON": "Warhammer",
      "COST": "15 gp",
      "DAMAGE": "1d8/1d10 bludgeoning",
      "WEIGHT": "2 lb.",
      "WEAPON OPTION": "Bash, Disarm",
      "PROPERTIES": "Versatile"
    },
    {
      "WEAPON": "Whip",
      "COST": "2 gp",
      "DAMAGE": "1d4 slashing",
      "WEIGHT": "3 lb.",
      "WEAPON OPTION": "Pull, Trip",
      "PROPERTIES": "Finesse, Reach"
    }
  ],
  "Martial Ranged Weapons": [
    {
      "WEAPON": "Blowgun",
      "COST": "10 gp",
      "DAMAGE": "1 piercing",
      "WEIGHT": "1 lb.",
      "WEAPON OPTION": "—",
      "PROPERTIES": "Ammunition (range 25/100 ft.), Loading"
    },
    {
      "WEAPON": "Crossbow, hand",
      "COST": "75 gp",
      "DAMAGE": "1d6 piercing",
      "WEIGHT": "3 lb.",
      "WEAPON OPTION": "Pinning Shot",
      "PROPERTIES": "Ammunition (range 30/120 ft.), Light, Loading"
    },
    {
      "WEAPON": "Crossbow, heavy",
      "COST": "50 gp",
      "DAMAGE": "1d10 piercing",
      "WEIGHT": "18 lb.",
      "WEAPON OPTION": "Pinning Shot",
      "PROPERTIES": "Ammunition (range 100/400 ft.), Heavy, Loading, Two-handed"
    },
    {
      "WEAPON": "Longbow",
      "COST": "50 gp",
      "DAMAGE": "1d8 piercing",
      "WEIGHT": "2 lb.",
      "WEAPON OPTION": "Pinning Shot",
      "PROPERTIES": "Ammunition (range 150/600 ft.), Heavy, Two-handed"
    }
  ]
}
